{
  "images" : [
    {
      "filename" : "F35499EE-15AF-4E96-9FFC-0B4AF1DB04DA_1_201_a.jpeg",
      "idiom" : "universal",
      "scale" : "1x"
    },
    {
      "idiom" : "universal",
      "scale" : "2x"
    },
    {
      "idiom" : "universal",
      "scale" : "3x"
    }
  ],
  "info" : {
    "author" : "xcode",
    "version" : 1
  }
}
